<?xml version="1.0" encoding="UTF-8" standalone="no"?>
<!DOCTYPE svg PUBLIC "-//W3C//DTD SVG 1.1//EN" "http://www.w3.org/Graphics/SVG/1.1/DTD/svg11.dtd">
<svg width="100%" height="100%" viewBox="0 0 200 79" version="1.1" xmlns="http://www.w3.org/2000/svg" xmlns:xlink="http://www.w3.org/1999/xlink" xml:space="preserve" xmlns:serif="http://www.serif.com/" style="fill-rule:evenodd;clip-rule:evenodd;stroke-linejoin:round;stroke-miterlimit:2;">
    <g transform="matrix(1,0,0,1,2.13163e-14,-21.5765)">
        <path d="M80.397,29.017L79.565,27.507C78.499,25.573 79.204,23.139 81.138,22.073C83.072,21.008 85.506,21.713 86.572,23.646L87.728,25.746C89.638,25.259 91.643,25 93.71,25C95.801,25 97.828,25.265 99.755,25.762L100.921,23.646C101.987,21.713 104.421,21.008 106.355,22.073C108.289,23.139 108.993,25.573 107.928,27.507L107.077,29.053C111.504,32.039 114.806,36.466 116.243,41.623L145.777,41.623C145.394,40.653 145.182,39.603 145.178,38.51L145.178,38.447C145.178,33.513 149.398,29.453 154.527,29.453C159.655,29.453 163.875,33.513 163.875,38.447C163.875,39.562 163.66,40.633 163.266,41.623L176.674,41.623C189.548,41.623 200,51.678 200,64.064C200,76.401 189.629,86.426 176.825,86.504L176.674,86.505L148.012,86.505C144.417,94.444 136.186,100 126.617,100C117.048,100 108.817,94.444 105.221,86.505L99.734,86.505C96.61,101.034 74.339,96.746 74.339,96.746L76.186,86.505L23.326,86.505L23.175,86.504C10.371,86.426 -0,76.401 -0,64.064C-0,51.678 10.452,41.623 23.326,41.623L71.177,41.623C72.62,36.445 75.942,32.003 80.397,29.017Z" style="fill:white;"/>
        <g transform="matrix(1,0,0,1,0,25)">
            <path d="M143.788,22.91L143.788,50.463C143.788,61.632 138.435,70.262 126.131,70.262C119.111,70.262 113.27,66.316 110.766,62.836L117.717,58.155C119.388,60.095 121.96,61.702 125.923,61.702C131.346,61.702 134.472,58.089 134.541,52.403C132.103,54.522 128.929,55.691 125.643,55.68C115.981,55.68 109.445,48.328 109.445,39.029C109.445,29.73 115.996,22.441 125.643,22.441C128.931,22.417 132.11,23.588 134.541,25.718L134.541,22.917L143.788,22.91ZM40.288,39.029C40.288,48.324 32.988,55.68 23.326,55.68C13.664,55.68 6.364,48.328 6.364,39.029C6.364,29.73 13.664,22.441 23.326,22.441C32.988,22.441 40.288,29.733 40.288,39.029ZM190.503,45.849C190.292,51.668 184.87,55.613 177.155,55.613C170.135,55.613 163.945,51.867 162.835,47.911L169.578,44.434C170.273,46.108 173.192,47.445 175.557,47.585C178.057,47.718 180.838,47.116 180.769,45.38C180.699,43.573 179.102,43.37 174.444,41.833C167.144,39.358 163.945,36.953 164.156,31.68C164.363,27.199 168.119,22.514 176.806,22.514C184.87,22.514 188.695,27.531 189.179,30.476L182.09,32.408C181.744,31.337 180.634,29.8 178.057,29.607C174.513,29.341 173.61,31.008 173.69,31.883C173.76,33.088 174.731,33.889 180.015,35.426C187.861,37.758 190.711,40.968 190.503,45.849ZM149.905,22.91L159.149,22.91L159.149,55.165L149.905,55.165L149.905,22.91ZM74.339,55.165L63.913,55.165L57.1,45.247L50.357,55.165L39.924,55.165L51.463,38.644L40.477,22.927L50.976,22.927L57.093,32.03L63.28,22.927L73.778,22.927L62.792,38.644L74.339,55.165ZM31.252,39.029C31.252,34.211 28.34,30.535 23.326,30.535C18.311,30.535 15.4,34.211 15.4,39.029C15.4,43.846 18.311,47.522 23.326,47.522C28.34,47.522 31.241,43.843 31.241,39.029L31.252,39.029ZM134.541,39.015C134.541,34.197 131.63,30.521 126.618,30.521C121.607,30.521 118.692,34.197 118.692,39.015C118.692,43.832 121.604,47.508 126.618,47.508C131.633,47.508 134.541,43.843 134.541,39.029L134.541,39.015ZM149.348,13.482L149.348,13.447C149.348,10.714 151.686,8.465 154.527,8.465C157.368,8.465 159.705,10.714 159.705,13.447C159.705,16.169 157.386,18.413 154.556,18.429L154.509,18.429C151.685,18.429 149.358,16.198 149.348,13.482Z" style="fill:rgb(5,95,253);fill-rule:nonzero;"/>
        </g>
        <path d="M98.342,79.553C94.656,88.655 90.97,95.136 79.568,93.599L81.024,85.371C83.935,85.84 86.588,86.04 89.161,79.686L77.13,47.98L86.657,47.98L92.651,64.887C92.817,65.328 93.255,65.624 93.743,65.624C94.23,65.624 94.669,65.328 94.834,64.887L100.828,47.98L110.29,47.98C110.29,47.98 100.428,74.536 98.342,79.553ZM101.8,31.411L104.55,26.381C104.706,26.099 104.612,25.741 104.348,25.577C104.085,25.413 103.742,25.508 103.59,25.79L100.803,30.885C98.677,29.86 96.284,29.288 93.71,29.288C91.136,29.288 88.743,29.86 86.617,30.885L83.83,25.79C83.675,25.508 83.335,25.413 83.068,25.577C82.801,25.741 82.711,26.099 82.866,26.381L85.617,31.411C80.873,34.124 77.661,39.192 77.13,45.124L110.29,45.124C109.759,39.191 106.547,34.124 101.8,31.411L101.8,31.411ZM86.097,40.209C85.328,40.209 84.707,39.55 84.707,38.742C84.707,37.93 85.332,37.275 86.097,37.275C86.866,37.275 87.487,37.934 87.487,38.742C87.49,39.55 86.866,40.209 86.097,40.209ZM101.32,40.209C100.551,40.209 99.93,39.55 99.93,38.742C99.93,37.93 100.554,37.275 101.32,37.275C102.088,37.275 102.709,37.934 102.709,38.742C102.713,39.55 102.088,40.209 101.32,40.209Z" style="fill:rgb(48,63,190);fill-rule:nonzero;"/>
    </g>
</svg>
